seen 32, trained: 32013 K-images (500 Kilo-batches_64) 


data/cat.jpg: Predicted in 5.311514 seconds.
cat: 89%

data/city_scene.jpg: Predicted in 5.290186 seconds.
person: 27%
traffic light: 44%
person: 72%
traffic light: 36%
bus: 41%
person: 63%
car: 54%
truck: 25%
traffic light: 36%
person: 71%

data/dog.jpg: Predicted in 5.320891 seconds.
dog: 79%
bicycle: 84%
truck: 77%

data/dog2.jpg: Predicted in 5.312965 seconds.
person: 40%
bicycle: 84%
cat: 25%
dog: 61%
person: 27%
person: 36%
person: 31%
person: 56%

data/Dog.png: Predicted in 5.276196 seconds.
dog: 87%

data/eagle.jpg: Predicted in 5.283967 seconds.
bird: 91%

data/food.jpg: Predicted in 5.302146 seconds.
bowl: 39%
bowl: 36%
diningtable: 72%
bowl: 61%
bowl: 50%
bowl: 58%
carrot: 34%
spoon: 60%
bowl: 48%
bowl: 78%
spoon: 42%
bowl: 31%
bowl: 84%
bowl: 43%
carrot: 37%
bowl: 85%
spoon: 34%
bowl: 41%
bowl: 75%
spoon: 36%
broccoli: 43%
spoon: 69%

data/giraffe.jpg: Predicted in 5.278300 seconds.
giraffe: 90%
zebra: 80%

data/horses.jpg: Predicted in 5.264640 seconds.
horse: 71%
horse: 90%
horse: 46%
horse: 69%
horse: 25%
horse: 85%

data/kite.jpg: Predicted in 5.294962 seconds.
person: 35%
person: 57%
kite: 54%
kite: 30%
kite: 71%
kite: 41%

data/motorbike.jpg: Predicted in 5.288004 seconds.
motorbike: 76%
person: 82%

data/person.jpg: Predicted in 5.225981 seconds.
dog: 81%
person: 87%
horse: 87%

data/scream.jpg: Predicted in 5.258368 seconds.

data/surf.jpg: Predicted in 5.313592 seconds.
surfboard: 85%
person: 85%

data/wine.jpg: Predicted in 5.317650 seconds.
chair: 45%
diningtable: 74%
bottle: 64%
wine glass: 78%
chair: 58%









cat.jpg , 5.311514
city_scene.jpg , 5.290186
dog.jpg , 5.320891
dog2.jpg , 5.312965
Dog.png , 5.276196
eagle.jpg , 5.283967
food.jpg , 5.302146
giraffe.jpg , 5.278300
horses.jpg , 5.264640
kite.jpg , 5.294962
motorbike.jpg , 5.288004
person.jpg , 5.225981
scream.jpg , 5.258368
surf.jpg , 5.313592
wine.jpg , 5.317650
